…
  |=====                                                              |   8%
| ggplot a une limitation sur les types de données qu'il prend en entrée.
| Elles doivent être sous forme de tableaux. Les seuls tableaux que vous
| avez vu jusqu'à présent sont des dataframes. Le but de cette leçon est de
| vous introduire différents types de représentations graphiques et leurs
| arguments. Les sorties n'auront peut-être pas l'air très intéressantes,
| mais tout serait plus intéressant avec des données plus larges.

...

  |========                                                           |  12%
| Affichez l'aide pour le rp2018, à l'aide de help ou ?.

> rp2018
# A tibble: 5,417 × 62
   code_insee commune   code_…¹ region code_…² depar…³ pop_tot pop_cl pop_0…⁴
   <chr>      <chr>     <chr>   <chr>  <chr>   <chr>     <dbl> <fct>    <dbl>
 1 01004      Ambérieu… 84      Auver… 01      Ain      14204  10 00…   2716.
 2 01007      Ambronay  84      Auver… 01      Ain       2763  2 000…    616.
 3 01014      Arbent    84      Auver… 01      Ain       3356  3 001…    630.
 4 01024      Attignat  84      Auver… 01      Ain       3196  3 001…    684.
 5 01025      Bâgé-Dom… 84      Auver… 01      Ain       4078. 3 001…    874.
 6 01027      Balan     84      Auver… 01      Ain       2513  2 000…    483 
 7 01031      Bellignat 84      Auver… 01      Ain       3632  3 001…    736.
 8 01032      Béligneux 84      Auver… 01      Ain       3351  3 001…    875 
 9 01033      Valserhô… 84      Auver… 01      Ain      16431  10 00…   3301.
10 01034      Belley    84      Auver… 01      Ain       9122. 5 001…   1667.
# … with 5,407 more rows, 53 more variables: pop_15_29 <dbl>,
#   pop_18_24 <dbl>, pop_75p <dbl>, pop_femmes <dbl>, pop_act_15p <dbl>,
#   pop_chom <dbl>, pop_agric <dbl>, pop_indep <dbl>, pop_cadres <dbl>,
#   pop_interm <dbl>, pop_empl <dbl>, pop_ouvr <dbl>, pop_scol_18_24 <dbl>,
#   pop_non_scol_15p <dbl>, pop_dipl_aucun <dbl>, pop_dipl_bepc <dbl>,
#   pop_dipl_capbep <dbl>, pop_dipl_bac <dbl>, pop_dipl_sup2 <dbl>,
#   pop_dipl_sup34 <dbl>, pop_dipl_sup <dbl>, log_rp <dbl>, …
# ℹ Use `print(n = ...)` to see more rows, and `colnames()` to see all variable names
…
